<?xml version="1.0" encoding="UTF-8" standalone="no"?>
<!-- Created with Inkscape (http://www.inkscape.org/) -->

<svg
   xmlns:dc="http://purl.org/dc/elements/1.1/"
   xmlns:cc="http://creativecommons.org/ns#"
   xmlns:rdf="http://www.w3.org/1999/02/22-rdf-syntax-ns#"
   xmlns:svg="http://www.w3.org/2000/svg"
   xmlns="http://www.w3.org/2000/svg"
   xmlns:sodipodi="http://sodipodi.sourceforge.net/DTD/sodipodi-0.dtd"
   xmlns:inkscape="http://www.inkscape.org/namespaces/inkscape"
   width="210mm"
   height="297mm"
   viewBox="0 0 210 297"
   version="1.1"
   id="svg8"
   inkscape:version="0.92.4 (5da689c313, 2019-01-14)"
   sodipodi:docname="ink1.svg">
  <defs
     id="defs2">
    <inkscape:perspective
       sodipodi:type="inkscape:persp3d"
       inkscape:vp_x="-0.99533607 : 151.34186 : 1"
       inkscape:vp_y="0 : 1029.2722 : 0"
       inkscape:vp_z="249.64106 : 151.34186 : 1"
       inkscape:persp3d-origin="124.32286 : 100.39288 : 1"
       id="perspective14" />
  </defs>
  <sodipodi:namedview
     id="base"
     pagecolor="#ffffff"
     bordercolor="#666666"
     borderopacity="1.0"
     inkscape:pageopacity="0.0"
     inkscape:pageshadow="2"
     inkscape:zoom="0.7"
     inkscape:cx="386.15151"
     inkscape:cy="612.22491"
     inkscape:document-units="mm"
     inkscape:current-layer="layer1"
     showgrid="false"
     inkscape:snap-text-baseline="true"
     inkscape:snap-grids="false"
     inkscape:window-width="1920"
     inkscape:window-height="1017"
     inkscape:window-x="-8"
     inkscape:window-y="-8"
     inkscape:window-maximized="1" />
  <metadata
     id="metadata5">
    <rdf:RDF>
      <cc:Work
         rdf:about="">
        <dc:format>image/svg+xml</dc:format>
        <dc:type
           rdf:resource="http://purl.org/dc/dcmitype/StillImage" />
        <dc:title></dc:title>
      </cc:Work>
    </rdf:RDF>
  </metadata>
  <g
     inkscape:label="Layer 1"
     inkscape:groupmode="layer"
     id="layer1">
    <flowRoot
       xml:space="preserve"
       id="flowRoot78"
       style="font-style:normal;font-weight:normal;font-size:40px;line-height:1.25;font-family:sans-serif;letter-spacing:0px;word-spacing:0px;fill:#000000;fill-opacity:1;stroke:none"
       transform="matrix(0.31578196,0,0,0.27232828,-0.99533248,-7.1887826)"><flowRegion
         id="flowRegion80"><rect
           id="rect82"
           width="184.28572"
           height="94.285713"
           x="352.85715"
           y="891.09113" /></flowRegion><flowPara
         id="flowPara84">Ali salem </flowPara></flowRoot>    <rect
       style="fill:#0000ff;stroke-width:0.27890229"
       id="rect10"
       width="42.744385"
       height="30.810427"
       x="7.2983503"
       y="6.3561902"
       ry="15.405214" />
    <rect
       style="fill:#0000ff;stroke-width:0.33026695"
       id="rect12"
       width="47.84819"
       height="37.962849"
       x="77.4757"
       y="8.0067482"
       ry="0" />
    <g
       sodipodi:type="inkscape:box3d"
       id="g16"
       style="fill:#0000ff"
       inkscape:perspectiveID="#perspective14"
       inkscape:corner0="-0.23567733 : 0.13311272 : 0 : 1"
       inkscape:corner7="-0.3683893 : 0.1150643 : 0.15097309 : 1">
      <path
         sodipodi:type="inkscape:box3dside"
         id="path18"
         style="fill:#353564;fill-rule:evenodd;stroke:none;stroke-width:1.10835159;stroke-linejoin:round"
         inkscape:box3dsidetype="6"
         d="m 162.96447,33.061406 v 24.304835 l 14.29684,14.563272 V 51.633629 Z"
         points="162.96447,57.366241 177.26131,71.929513 177.26131,51.633629 162.96447,33.061406 " />
      <path
         sodipodi:type="inkscape:box3dside"
         id="path28"
         style="fill:#e9e9ff;fill-rule:evenodd;stroke:none;stroke-width:1.10835159;stroke-linejoin:round"
         inkscape:box3dsidetype="11"
         d="M 177.26131,51.633629 207.49039,35.688783 V 59.426479 L 177.26131,71.929513 Z"
         points="207.49039,35.688783 207.49039,59.426479 177.26131,71.929513 177.26131,51.633629 " />
      <path
         sodipodi:type="inkscape:box3dside"
         id="path20"
         style="fill:#4d4d9f;fill-rule:evenodd;stroke:none;stroke-width:1.10835159;stroke-linejoin:round"
         inkscape:box3dsidetype="5"
         d="M 162.96447,33.061406 197.41517,9.4029483 207.49039,35.688783 177.26131,51.633629 Z"
         points="197.41517,9.4029483 207.49039,35.688783 177.26131,51.633629 162.96447,33.061406 " />
      <path
         sodipodi:type="inkscape:box3dside"
         id="path26"
         style="fill:#afafde;fill-rule:evenodd;stroke:none;stroke-width:1.10835159;stroke-linejoin:round"
         inkscape:box3dsidetype="13"
         d="m 162.96447,57.366241 34.4507,-18.551605 10.07522,20.611843 -30.22908,12.503034 z"
         points="197.41517,38.814636 207.49039,59.426479 177.26131,71.929513 162.96447,57.366241 " />
      <path
         sodipodi:type="inkscape:box3dside"
         id="path24"
         style="fill:#d7d7ff;fill-rule:evenodd;stroke:none;stroke-width:1.10835159;stroke-linejoin:round"
         inkscape:box3dsidetype="14"
         d="M 197.41517,9.4029483 V 38.814636 l 10.07522,20.611843 V 35.688783 Z"
         points="197.41517,38.814636 207.49039,59.426479 207.49039,35.688783 197.41517,9.4029483 " />
      <path
         sodipodi:type="inkscape:box3dside"
         id="path22"
         style="fill:#8686bf;fill-rule:evenodd;stroke:none;stroke-width:1.10835159;stroke-linejoin:round"
         inkscape:box3dsidetype="3"
         d="M 162.96447,33.061406 197.41517,9.4029483 V 38.814636 l -34.4507,18.551605 z"
         points="197.41517,9.4029483 197.41517,38.814636 162.96447,57.366241 162.96447,33.061406 " />
    </g>
    <path
       sodipodi:type="star"
       style="fill:#0000ff;stroke-width:0.26458332"
       id="path30"
       sodipodi:sides="5"
       sodipodi:cx="25.657875"
       sodipodi:cy="77.838989"
       sodipodi:r1="20.53632"
       sodipodi:r2="10.268159"
       sodipodi:arg1="0.67474094"
       sodipodi:arg2="1.3030595"
       inkscape:flatsided="false"
       inkscape:rounded="0"
       inkscape:randomized="0"
       d="M 41.694047,90.667926 28.374312,87.741315 18.41228,97.054654 17.079629,83.482461 5.1436797,76.885986 17.63979,71.424521 20.225,58.034336 29.280672,68.231158 42.814369,66.552043 35.914972,78.315491 Z"
       inkscape:transform-center-x="2.0037205"
       inkscape:transform-center-y="-0.30311917"
       transform="matrix(1.1935066,0,0,1.0292722,-0.99533609,-7.1887872)" />
    <path
       sodipodi:type="spiral"
       style="fill:none;fill-rule:evenodd;stroke:#000000;stroke-width:0.26458332"
       id="path32"
       sodipodi:cx="84.991707"
       sodipodi:cy="85.322533"
       sodipodi:expansion="1"
       sodipodi:revolution="3"
       sodipodi:radius="24.202286"
       sodipodi:argument="-18.095398"
       sodipodi:t0="0"
       d="m 84.991707,85.322533 c 0.884431,0.830828 -0.683594,1.602097 -1.380892,1.469983 -1.889637,-0.358022 -2.266431,-2.752305 -1.559074,-4.231767 1.265296,-2.646412 4.752803,-3.060792 7.082642,-1.648165 3.419132,2.073087 3.87768,6.780073 1.737256,9.933517 -2.85285,4.203045 -8.816799,4.704107 -12.784393,1.826346 -4.992812,-3.621367 -5.535454,-10.858018 -1.915437,-15.635267 4.384326,-5.785889 12.901767,-6.369649 18.486142,-2.004528 6.580989,5.144144 7.205629,14.947092 2.093619,21.337017 -5.90202,7.377421 -16.99347,8.042801 -24.187892,2.18271 -8.174759,-6.658613 -8.880814,-19.040587 -2.271801,-27.038767 7.414315,-8.972749 21.088244,-9.719429 29.889643,-2.360892 9.77122,8.169371 10.5585,23.136306 2.44998,32.74052"
       transform="matrix(1.1935066,0,0,1.0292722,-0.99533609,-7.1887872)" />
    <path
       style="fill:none;stroke:#000000;stroke-width:0.29325134px;stroke-linecap:butt;stroke-linejoin:miter;stroke-opacity:1"
       d="m 171.25815,92.185239 c -0.59025,1.179225 -6.46248,0.207177 -7.65571,0.550185 -0.20174,0.058 0,0.366791 0,0.550188 -0.21265,0.183394 -0.3462,0.487282 -0.63797,0.550185 -0.61892,0.133441 -1.30869,-0.173982 -1.91393,0 -0.20175,0.058 0.0951,0.386153 0,0.550187 -0.13449,0.231977 -0.42531,0.366791 -0.63797,0.550185 -0.89458,0.771482 -2.22215,1.613386 -2.55191,2.750928 -0.10312,0.35584 0,0.733583 0,1.100374 0,0.550187 0,1.100374 0,1.650559 0,0.36679 0,0.73359 0,1.10038 0,0.73357 -0.20631,1.48906 0,2.20074 0.47152,1.62654 2.13636,3.10356 3.18988,4.40148 0.48632,0.59915 3.47299,4.64564 4.46583,5.50186 2.4727,2.13244 3.00439,1.63136 6.37976,2.75094 1.51161,0.50139 2.92939,1.20889 4.46583,1.65056 3.09034,0.88837 6.37964,0.55019 9.56964,0.55019 1.48861,0 3.00613,0.25176 4.46584,0 0.75185,-0.12968 1.30052,-0.70363 1.91392,-1.10038 2.36195,-1.52769 3.66772,-2.23416 5.1038,-4.40148 0.33365,-0.50354 0.45324,-1.09294 0.63798,-1.65056 0.94744,-2.85973 0.63798,-2.0391 0.63798,-5.50187 0,-0.91697 0,-1.83395 0,-2.75093 0,-0.73357 0.16683,-1.4814 0,-2.20074 -1.23823,-5.339238 -6.45739,-9.967029 -12.12154,-12.104098 -1.60661,-0.606167 -3.40792,-0.715498 -5.10381,-1.100372 -2.34484,-0.532154 -4.63588,-1.259303 -7.01773,-1.65056 -4.3492,-0.714424 -7.76648,-0.550185 -12.12154,-0.550185 -1.27596,0 -2.55191,0 -3.82786,0 -0.85064,0 -1.71779,-0.143868 -2.5519,0 -0.2949,0.05087 -0.42532,0.366791 -0.63798,0.550185 -0.42532,0.366791 -0.85063,0.733581 -1.27595,1.100373 -0.21266,0.183397 -0.42532,0.36679 -0.63798,0.550187 -0.21266,0.183394 -0.56504,0.29857 -0.63798,0.550185 -0.15472,0.533758 0,1.100372 0,1.65056 0,0.916975 -0.1748,1.846429 0,2.750929 0.20755,1.073951 1.03217,2.54069 1.91394,3.301121 0.75186,0.648401 1.71258,1.087581 2.55189,1.650552 1.07485,0.720953 1.99096,1.644015 3.18989,2.200748 1.82332,0.846695 8.092,2.558875 10.20761,2.750925 2.32639,0.2112 4.67849,0 7.01773,0 2.33925,0 4.6785,0 7.01774,0 1.70127,0 3.40755,0.11253 5.1038,0 2.48049,-0.16454 4.11828,-0.81471 6.37977,-1.65055 0.75147,-0.27774 2.83182,-1.238843 3.18987,-1.650562 0.2552,-0.293435 0,-0.733583 0,-1.100374 0,-0.183396 0,-0.366792 0,-0.550187 0,-2.484665 0.38937,-3.559656 -3.18987,-4.401485 -0.97429,-0.229153 -8.88988,-0.993789 -9.56964,-1.100373 -2.9957,-0.469723 -5.88686,-1.650559 -8.93167,-1.650559 -2.22022,0 -4.15954,1.650559 -6.37976,1.650559 -3.0448,0 -5.91477,-1.295775 -8.93165,-1.650559 -3.94399,-0.463808 -4.76217,-0.396859 -7.65571,1.100372 -0.2579,0.133441 -0.54288,0.304136 -0.63798,0.550187 -0.0974,0.251855 0,2.443839 0,2.75093 0,0.916981 -0.3949,1.899534 0,2.750928 0.1766,0.380758 0.86308,0.346731 1.27595,0.550187 3.1753,1.564782 4.33314,2.582066 8.29368,3.301126 2.29851,0.41731 4.67696,0.38196 7.01774,0.55018 10.59154,0.76117 6.53638,0.55018 17.86333,0.55018 4.5323,0 11.3947,0.198 15.94939,-0.55018 1.98183,-0.32554 3.87952,-0.98139 5.74178,-1.65056 0.35725,-0.12837 2.82226,-1.566673 3.18988,-2.200746 0.0951,-0.164035 0.15037,-0.420499 0,-0.550187 -0.15037,-0.129678 -0.44776,0.08203 -0.63797,0 -3.03934,-1.310552 5.0982,0.136347 -3.18988,-1.650552 -0.82523,-0.17792 -1.70127,0 -2.5519,0 -2.12659,0 -4.25317,0 -6.37976,0 -3.18989,0 -6.37976,0 -9.56965,0 -0.85063,0 -1.72665,-0.17792 -2.55189,0 -0.20631,0.04447 0,0.366792 0,0.550188 0,0.366791 -0.19021,0.772304 0,1.100364 0.0951,0.164035 0.42532,0 0.63798,0 0.63796,0 1.28236,-0.07781 1.91391,0 6.27105,0.772592 -1.58408,0.550187 5.7418,0.550187 2.458,0 5.86625,0.211052 8.29368,-0.550187 1.16535,-0.365443 2.08079,-1.172321 3.18988,-1.650552 1.91954,-0.827702 1.94377,-0.0386 3.18987,-1.650561 0.11792,-0.152596 0.15039,-0.420507 0,-0.550187 -0.15037,-0.12968 -0.42531,0 -0.63797,0 -0.42532,0 -0.87246,-0.11599 -1.27595,0 -0.5339,0.153476 -1.64785,1.880026 -1.27595,2.200748 0.15037,0.129678 0.42532,0 0.63798,0 0.42532,0 0.85062,0 1.27594,0 0.42532,0 0.85064,0 1.27595,0 0.63798,0 1.29501,0.133435 1.91393,0 0.29177,-0.06289 0.42532,-0.366794 0.63798,-0.550189 0.66,-0.569176 1.03215,-0.630758 0.63798,-1.650559 -0.36114,-0.934337 -2.93457,-0.946301 -3.82786,-1.100373 -1.0633,-0.183394 -2.10998,-0.465523 -3.18988,-0.550185 -1.27071,-0.09962 -2.5519,0 -3.82786,0 -4.27358,0 -3.93604,-0.251767 -7.6557,0.550185 -1.50196,0.323821 -2.98295,0.716725 -4.46584,1.100373 -0.64412,0.166645 -1.35438,0.228489 -1.91393,0.550187 -0.17694,0.101733 0,0.366791 0,0.550185 0,0.36679 0,0.733582 0,1.100376 0,0.183396 -0.1902,0.468165 0,0.550188 0.38042,0.164035 0.85064,0 1.27595,0 0.85064,0 1.70128,0 2.55191,0 1.74225,0 4.13218,0.143861 5.74178,-0.550188 0.80698,-0.347971 1.27596,-1.100376 1.91393,-1.650561 0.21266,-0.183397 0.56503,-0.298569 0.63798,-0.550187 0.20631,-0.711678 0,-1.467164 0,-2.200745 0,-0.366791 0.1345,-0.752405 0,-1.100372 -0.42017,-1.087042 -2.65456,-0.498893 -3.18988,-0.550185 -6.86783,-0.658087 -0.30967,-0.550188 -5.10381,-0.550188 -0.63797,0 -1.27595,0 -1.91393,0 -0.21266,0 -0.42532,0 -0.63798,0 -0.21265,0 -0.73307,-0.164034 -0.63796,0 0.83479,1.439835 2.23932,1.259145 3.82785,1.65056 6.63019,1.633667 5.55571,1.867666 12.12154,2.200745 2.33521,0.118463 4.67849,0 7.01773,0 0.42532,0 0.89554,0.164034 1.27596,0 0.19021,-0.08201 0.15037,-0.420508 0,-0.550188 -1.43523,-1.237723 -7.28117,-3.19345 -7.65571,-3.301117 -8.14493,-2.341381 -7.76261,-1.41346 -16.58737,-2.200744 -3.20103,-0.285575 -6.36178,-0.879057 -9.56964,-1.100373 -2.11982,-0.146249 -4.25317,0 -6.37976,0 -1.70127,0 -3.40255,0 -5.10381,0 -0.63797,0 -1.27595,0 -1.91393,0 -0.21266,0 -0.63798,-0.183394 -0.63798,0 0,0.335059 0.7903,1.441142 1.27596,1.65056 0.19021,0.08201 0.44777,-0.08201 0.63798,0 0.6858,0.295716 1.20916,0.839895 1.91392,1.100372 2.33104,0.861543 4.50189,0.550185 7.01773,0.550185 1.70127,0 3.40254,0 5.10382,0 1.70126,0 3.40253,0 5.1038,0 1.0633,0 2.12659,0 3.18987,0 1.41374,0 2.05599,0.20346 3.18989,-1.100372 0.90273,-1.038015 -0.62887,-1.464546 -1.27595,-1.650557 -1.46873,-0.42221 -2.92961,-0.93477 -4.46583,-1.100373 -1.89916,-0.204728 -3.82786,0 -5.74178,0 -2.12659,0 -4.25318,0 -6.37977,0 -1.4886,0 -2.99747,-0.211052 -4.46583,0 -1.12962,0.162362 -2.16558,0.658697 -3.18987,1.100373 -0.269,0.115987 -0.42532,0.36679 -0.63798,0.550185 -1.42633,1.230052 -1.27596,0.581652 -1.27596,1.650559 0,0.183394 -0.0951,0.386151 0,0.550185 0.61973,1.068908 2.09011,0.550188 3.18988,0.550188 2.76457,0 5.52913,0 8.29369,0 4.52198,0 4.21808,0.405962 8.29369,-1.100373 0.27643,-0.102165 0.50348,-0.318207 0.63797,-0.550187 0.24637,-0.424925 -0.45578,-1.583221 -0.63797,-1.650557 -2.30437,-0.851688 -8.48742,-0.550188 -10.20762,-0.550188 -1.27595,0 -2.5519,0 -3.82785,0 -0.85064,0 -1.71779,-0.143868 -2.55191,0 -0.29491,0.05087 -0.42532,0.366791 -0.63797,0.550188 -0.21266,0.183393 -0.42532,0.36679 -0.63797,0.550185 -1.42633,1.230052 -1.27596,0.581652 -1.27596,1.650559 0,0.183394 -0.15037,0.420505 0,0.550185 1.0305,0.888697 1.89531,0.42614 3.18988,0.550188 8.25897,0.791385 -1.08641,0.550185 8.93166,0.550185 1.91393,0 3.82785,0 5.74178,0 1.48862,0 2.98462,0.127741 4.46583,0 0.66915,-0.05771 1.26152,-0.409528 1.91393,-0.550185 0.20631,-0.04449 0.48761,0.12968 0.63798,0 0.41651,-0.359196 -0.43866,-1.057402 -0.63798,-1.100373 -0.61893,-0.133441 -1.28087,0.06824 -1.91393,0 -1.07597,-0.115989 -2.11216,-0.446918 -3.18987,-0.550187 -0.84544,-0.08101 -1.70128,0 -2.5519,0 -0.85064,0 -1.70127,0 -2.55191,0 -0.63797,0 -1.27595,0 -1.91393,0 -0.42532,0 -0.89553,-0.164035 -1.27595,0 -0.19021,0.08201 0,0.366791 0,0.550187 0,0.183394 -0.0951,0.386151 0,0.550185 0.13449,0.23198 0.35874,0.453862 0.63797,0.550188 2.53043,0.872885 6.36509,0.550185 8.93167,0.550185 1.0633,0 2.12659,0 3.18987,0 0.85064,0 1.70128,0 2.55191,0 0.63798,0 1.46281,0.38904 1.91393,0 0.33624,-0.289973 -0.21266,-0.916976 -0.63797,-1.100373 -0.13702,-0.05908 -3.93027,0 -4.46583,0 -0.42532,0 -0.85064,0 -1.27595,0 -0.21266,0 -0.63798,-0.183394 -0.63798,0 0,0.259361 0.34621,0.487283 0.63798,0.550188 0.61892,0.133438 1.27595,0 1.91391,0 1.0633,0 2.12659,0 3.18989,0"
       id="path36"
       inkscape:connector-curvature="0" />
    <path
       style="fill:#e3dbdb;stroke:#000000;stroke-width:0.29325134px;stroke-linecap:butt;stroke-linejoin:miter;stroke-opacity:1"
       d="m 21.971796,128.49753 c 6.379759,18.15614 -12.1215418,18.15614 14.035471,10.45353 26.15701,-7.7026 37.0026,-14.30483 24.243083,-2.75092 -12.759516,11.55391 -24.88106,8.25279 -13.397495,11.00372 11.483567,2.75093 -18.5013,30.26024 -18.5013,30.26024"
       id="path38"
       inkscape:connector-curvature="0" />
    <path
       style="fill:#ff00ff;stroke-width:0.59245718"
       d="m 175.52945,118.45076 c -1.40354,-0.45789 -3.8438,-1.22398 -5.42279,-1.70241 -3.75364,-1.13735 -4.52875,-1.76666 -8.99655,-7.30422 -2.74542,-3.40278 -3.76297,-5.15658 -3.76297,-6.48568 0,-1.63051 0.12951,-1.76195 1.23386,-1.25224 3.40427,1.57121 10.60836,2.22017 24.64588,2.22017 h 14.31274 l -0.004,3.16357 c -0.006,4.96218 -0.91789,6.91313 -4.54944,9.72892 l -3.2407,2.51273 -5.83227,-0.0242 c -3.59177,-0.0148 -6.81261,-0.34397 -8.38418,-0.85668 z"
       id="path40"
       inkscape:connector-curvature="0" />
    <flowRoot
       xml:space="preserve"
       id="flowRoot42"
       style="font-style:normal;font-weight:normal;font-size:40px;line-height:1.25;font-family:sans-serif;letter-spacing:0px;word-spacing:0px;fill:#000000;fill-opacity:1;stroke:none"
       transform="matrix(0.60749666,0.03517092,-0.27658635,-1.9653614,100.22494,1599.724)"><flowRegion
         id="flowRegion44"><rect
           id="rect46"
           width="340"
           height="158.57143"
           x="300"
           y="718.23395" /></flowRegion><flowPara
         id="flowPara48">Ali salem </flowPara></flowRoot>    <flowRoot
       xml:space="preserve"
       id="flowRoot50"
       style="font-style:normal;font-weight:normal;font-size:40px;line-height:1.25;font-family:sans-serif;letter-spacing:0px;word-spacing:0px;fill:#000000;fill-opacity:1;stroke:none"
       transform="matrix(-0.52494479,0,0,0.69907153,303.63312,-436.45993)"><flowRegion
         id="flowRegion52"><rect
           id="rect54"
           width="372.85715"
           height="101.42857"
           x="222.85715"
           y="896.80542" /></flowRegion><flowPara
         id="flowPara56">Ali salem</flowPara></flowRoot>    <flowRoot
       xml:space="preserve"
       id="flowRoot70"
       style="font-style:normal;font-weight:normal;font-size:40px;line-height:1.25;font-family:sans-serif;letter-spacing:0px;word-spacing:0px;fill:#000000;fill-opacity:1;stroke:none"
       transform="matrix(1.1935066,0,0,1.0292722,-0.99533609,-7.1887872)"><flowRegion
         id="flowRegion72"><rect
           id="rect74"
           width="168.57143"
           height="107.14286"
           x="234.28572"
           y="862.51971" /></flowRegion><flowPara
         id="flowPara76" /></flowRoot>  </g>
</svg>
